…
# By catch events

Some test on D3 table in relation to D2 and D1.


```
## # A tibble: 316 × 296
##     year L3name       ecoregion `Abramis brama` Acanthocardia tuberc…¹ Acipenser
##    <int> <chr>        <chr>     <list>          <list>                 <list>   
##  1  2019 Traps        Baltic S… <dbl [3]>       <NULL>                 <NULL>   
##  2  2020 Traps        Baltic S… <dbl [2]>       <NULL>                 <NULL>   
##  3  2017 Bottom traw… Western … <NULL>          <dbl [3]>              <NULL>   
##  4  2018 Bottom traw… Western … <NULL>          <dbl [3]>              <NULL>   
##  5  2023 Nets         Baltic S… <NULL>          <NULL>                 <dbl [2]>
##  6  2021 Bottom traw… Ionian S… <NULL>          <NULL>                 <NULL>   
##  7  2021 Nets         Baltic S… <NULL>          <NULL>                 <NULL>   
##  8  2022 Nets         Baltic S… <NULL>          <NULL>                 <NULL>   
##  9  2019 Pelagic tra… Black Sea <NULL>          <NULL>                 <NULL>   
## 10  2023 Bottom traw… Black Sea <NULL>          <NULL>                 <NULL>   
## # ℹ 306 more rows
## # ℹ abbreviated name: ¹​`Acanthocardia tuberculata`
## # ℹ 290 more variables: `Acipenser naccarii` <list>,
## #   `Acipenser oxyrinchus` <list>, `Acipenser stellatus` <list>,
## #   `Aetomylaeus bovinus` <list>, `Alburnus alburnus` <list>,
## #   `Alca torda` <list>, Alcidae <list>, `Alepisaurus ferox` <list>,
## #   `Alepocephalus bairdii` <list>, `Alepocephalus rostratus` <list>, …
```
…
